…
my_data_no_interp
#> # A tibble: 11,091 × 4
#>    sample_id   bsi wavenumber absorbance
#>    <chr>     <dbl>      <dbl>      <dbl>
#>  1 FISK-10.0  20.4      7497.    0.00751
#>  2 FISK-10.0  20.4      7495.    0.00828
#>  3 FISK-10.0  20.4      7493.    0.0083 
#>  4 FISK-10.0  20.4      7491.    0.00709
#>  5 FISK-10.0  20.4      7489.    0.00456
#>  6 FISK-10.0  20.4      7487.    0.00264
#>  7 FISK-10.0  20.4      7485.    0.00282
#>  8 FISK-10.0  20.4      7483.    0.00362
#>  9 FISK-10.0  20.4      7482.    0.00459
#> 10 FISK-10.0  20.4      7480.    0.00684
#> # … with 11,081 more rows
```
…
``` r
# It is just as easy to pivot back
# Wet Chem data is included, so we denote that with wet_chem = TRUE
my_data_long <- my_data_wide %>%
  pivot_longer(wet_chem = TRUE)

my_data_long
#> # A tibble: 5,643 × 4
#>    sample_id   bsi wavenumber absorbance
#>    <chr>     <dbl>      <dbl>      <dbl>
#>  1 FISK-10.0  20.4       3996   0.0007  
#>  2 FISK-10.0  20.4       3994   0.000702
#>  3 FISK-10.0  20.4       3992   0.000698
#>  4 FISK-10.0  20.4       3991   0.000672
#>  5 FISK-10.0  20.4       3989   0.000620
#>  6 FISK-10.0  20.4       3987   0.000551
#>  7 FISK-10.0  20.4       3985   0.000461
#>  8 FISK-10.0  20.4       3983   0.000368
#>  9 FISK-10.0  20.4       3981   0.000332
#> 10 FISK-10.0  20.4       3979   0.000310
#> # … with 5,633 more rows
```
…
